…
### 3.2. Loading data set

``` r
df_hratt <- read_csv("WA_Fn_UseC_HR_Employee_Attrition.csv", col_types = cols())
print(df_hratt)
```

    ## # A tibble: 1,470 × 35
    ##      Age Attrition BusinessTravel    DailyRate Department       DistanceFromHome
    ##    <dbl> <chr>     <chr>                 <dbl> <chr>                       <dbl>
    ##  1    41 Yes       Travel_Rarely          1102 Sales                           1
    ##  2    49 No        Travel_Frequently       279 Research & Deve…                8
    ##  3    37 Yes       Travel_Rarely          1373 Research & Deve…                2
    ##  4    33 No        Travel_Frequently      1392 Research & Deve…                3
    ##  5    27 No        Travel_Rarely           591 Research & Deve…                2
    ##  6    32 No        Travel_Frequently      1005 Research & Deve…                2
    ##  7    59 No        Travel_Rarely          1324 Research & Deve…                3
    ##  8    30 No        Travel_Rarely          1358 Research & Deve…               24
    ##  9    38 No        Travel_Frequently       216 Research & Deve…               23
    ## 10    36 No        Travel_Rarely          1299 Research & Deve…               27
    ## # ℹ 1,460 more rows
    ## # ℹ 29 more variables: Education <dbl>, EducationField <chr>,
    ## #   EmployeeCount <dbl>, EmployeeNumber <dbl>, EnvironmentSatisfaction <dbl>,
    ## #   Gender <chr>, HourlyRate <dbl>, JobInvolvement <dbl>, JobLevel <dbl>,
    ## #   JobRole <chr>, JobSatisfaction <dbl>, MaritalStatus <chr>,
    ## #   MonthlyIncome <dbl>, MonthlyRate <dbl>, NumCompaniesWorked <dbl>,
    ## #   Over18 <chr>, OverTime <chr>, PercentSalaryHike <dbl>, …
…
